<svg width="10" height="34" viewBox="0 0 10 34" fill="none" xmlns="http://www.w3.org/2000/svg">
<path fill-rule="evenodd" clip-rule="evenodd" d="M7.65822 17.4472C7.79898 17.1657 7.79898 16.8343 7.65822 16.5528L0.642087 2.52053C0.3457 1.92776 0.585969 1.20695 1.17874 0.910561C1.57393 0.71297 2.05446 0.873149 2.25206 1.26833L9.89429 16.5528C10.035 16.8343 10.0351 17.1657 9.89429 17.4472L2.25206 32.7317C2.05446 33.1269 1.57393 33.287 1.17874 33.0894C0.58597 32.7931 0.3457 32.0723 0.642087 31.4795L7.65822 17.4472Z" fill="#9D9DA1"/>
</svg>
