<svg width="32" height="32" viewBox="0 0 32 32" fill="none" xmlns="http://www.w3.org/2000/svg">
<path d="M9 23L9.98878 19.4049C9.37863 18.3526 9.05803 17.1597 9.05861 15.9364C9.06037 12.1121 12.1873 9 16.0293 9C17.8937 9.00058 19.6439 9.72333 20.9603 11.0347C22.2761 12.346 23.0006 14.089 23 15.9428C22.9982 19.7677 19.8713 22.8798 16.0293 22.8798C14.8629 22.8792 13.7136 22.5882 12.6955 22.0352L9 23ZM12.8666 20.7793C13.8489 21.3597 14.7867 21.7073 16.027 21.7079C19.2201 21.7079 21.8213 19.1214 21.8231 15.9417C21.8242 12.7555 19.2354 10.1725 16.0316 10.1713C12.8361 10.1713 10.2367 12.7578 10.2355 15.937C10.2349 17.2349 10.6171 18.2067 11.2589 19.2235L10.6734 21.3515L12.8666 20.7793ZM19.5407 17.5919C19.4974 17.5196 19.3813 17.4764 19.2066 17.3895C19.0326 17.3026 18.1763 16.8832 18.0162 16.8254C17.8568 16.7677 17.7408 16.7385 17.6241 16.9123C17.5081 17.0856 17.174 17.4764 17.0726 17.5919C16.9712 17.7074 16.8692 17.722 16.6951 17.6351C16.5211 17.5482 15.9596 17.3656 15.2943 16.7747C14.7768 16.315 14.4269 15.7474 14.3255 15.5736C14.2241 15.4003 14.3149 15.3064 14.4017 15.2201C14.4802 15.1425 14.5757 15.0177 14.6631 14.9162C14.7516 14.8158 14.7803 14.7435 14.8389 14.6274C14.8969 14.5119 14.8682 14.4104 14.8242 14.3235C14.7803 14.2372 14.4321 13.3837 14.2874 13.0367C14.1455 12.6989 14.0019 12.7444 13.8953 12.7392L13.5612 12.7333C13.4451 12.7333 13.2564 12.7765 13.097 12.9503C12.9375 13.1242 12.4874 13.543 12.4874 14.3964C12.4874 15.2498 13.1116 16.0741 13.1984 16.1896C13.2857 16.3051 14.4263 18.0562 16.1735 18.807C16.589 18.9855 16.9138 19.0922 17.1664 19.1722C17.5837 19.304 17.9635 19.2853 18.2636 19.241C18.5983 19.1914 19.294 18.8216 19.4393 18.4167C19.5847 18.0113 19.5847 17.6642 19.5407 17.5919Z" fill="#212121"/>
<rect x="0.5" y="0.5" width="31" height="31" rx="5.5" stroke="#D4D4D9"/>
</svg>
